%!PS-Adobe-3.0 EPSF-3.0
%%Creator: (MATLAB, The Mathworks, Inc. Version 9.12.0.1956245 \(R2022a\) Update 2. Operating System: Linux)
%%Title: ./fig_gmsk.eps
%%CreationDate: 2022-08-04T15:46:17
%%Pages: (atend)
%%BoundingBox:    19     3   415   295
%%LanguageLevel: 3
%%EndComments
%%BeginProlog
%%BeginResource: procset (Apache XML Graphics Std ProcSet) 1.2 0
%%Version: 1.2 0
%%Copyright: (Copyright 2001-2003,2010 The Apache Software Foundation. License terms: http://www.apache.org/licenses/LICENSE-2.0)
/bd{bind def}bind def
/ld{load def}bd
/GR/grestore ld
/GS/gsave ld
/RM/rmoveto ld
/C/curveto ld
/t/show ld
/L/lineto ld
/ML/setmiterlimit ld
/CT/concat ld
/f/fill ld
/N/newpath ld
/S/stroke ld
/CC/setcmykcolor ld
/A/ashow ld
/cp/closepath ld
/RC/setrgbcolor ld
/LJ/setlinejoin ld
/GC/setgray ld
/LW/setlinewidth ld
/M/moveto ld
/re {4 2 roll M
1 index 0 rlineto
0 exch rlineto
neg 0 rlineto
cp } bd
/_ctm matrix def
/_tm matrix def
/BT { _ctm currentmatrix pop matrix _tm copy pop 0 0 moveto } bd
/ET { _ctm setmatrix } bd
/iTm { _ctm setmatrix _tm concat } bd
/Tm { _tm astore pop iTm 0 0 moveto } bd
/ux 0.0 def
/uy 0.0 def
/F {
  /Tp exch def
  /Tf exch def
  Tf findfont Tp scalefont setfont
  /cf Tf def  /cs Tp def
} bd
/ULS {currentpoint /uy exch def /ux exch def} bd
/ULE {
  /Tcx currentpoint pop def
  gsave
  newpath
  cf findfont cs scalefont dup
  /FontMatrix get 0 get /Ts exch def /FontInfo get dup
  /UnderlinePosition get Ts mul /To exch def
  /UnderlineThickness get Ts mul /Tt exch def
  ux uy To add moveto  Tcx uy To add lineto
  Tt setlinewidth stroke
  grestore
} bd
/OLE {
  /Tcx currentpoint pop def
  gsave
  newpath
  cf findfont cs scalefont dup
  /FontMatrix get 0 get /Ts exch def /FontInfo get dup
  /UnderlinePosition get Ts mul /To exch def
  /UnderlineThickness get Ts mul /Tt exch def
  ux uy To add cs add moveto Tcx uy To add cs add lineto
  Tt setlinewidth stroke
  grestore
} bd
/SOE {
  /Tcx currentpoint pop def
  gsave
  newpath
  cf findfont cs scalefont dup
  /FontMatrix get 0 get /Ts exch def /FontInfo get dup
  /UnderlinePosition get Ts mul /To exch def
  /UnderlineThickness get Ts mul /Tt exch def
  ux uy To add cs 10 mul 26 idiv add moveto Tcx uy To add cs 10 mul 26 idiv add lineto
  Tt setlinewidth stroke
  grestore
} bd
/QT {
/Y22 exch store
/X22 exch store
/Y21 exch store
/X21 exch store
currentpoint
/Y21 load 2 mul add 3 div exch
/X21 load 2 mul add 3 div exch
/X21 load 2 mul /X22 load add 3 div
/Y21 load 2 mul /Y22 load add 3 div
/X22 load /Y22 load curveto
} bd
/SSPD {
dup length /d exch dict def
{
/v exch def
/k exch def
currentpagedevice k known {
/cpdv currentpagedevice k get def
v cpdv ne {
/upd false def
/nullv v type /nulltype eq def
/nullcpdv cpdv type /nulltype eq def
nullv nullcpdv or
{
/upd true def
} {
/sametype v type cpdv type eq def
sametype {
v type /arraytype eq {
/vlen v length def
/cpdvlen cpdv length def
vlen cpdvlen eq {
0 1 vlen 1 sub {
/i exch def
/obj v i get def
/cpdobj cpdv i get def
obj cpdobj ne {
/upd true def
exit
} if
} for
} {
/upd true def
} ifelse
} {
v type /dicttype eq {
v {
/dv exch def
/dk exch def
/cpddv cpdv dk get def
dv cpddv ne {
/upd true def
exit
} if
} forall
} {
/upd true def
} ifelse
} ifelse
} if
} ifelse
upd true eq {
d k v put
} if
} if
} if
} forall
d length 0 gt {
d setpagedevice
} if
} bd
/RE { % /NewFontName [NewEncodingArray] /FontName RE -
  findfont dup length dict begin
  {
    1 index /FID ne
    {def} {pop pop} ifelse
  } forall
  /Encoding exch def
  /FontName 1 index def
  currentdict definefont pop
  end
} bind def
%%EndResource
%%BeginResource: procset (Apache XML Graphics EPS ProcSet) 1.0 0
%%Version: 1.0 0
%%Copyright: (Copyright 2002-2003 The Apache Software Foundation. License terms: http://www.apache.org/licenses/LICENSE-2.0)
/BeginEPSF { %def
/b4_Inc_state save def         % Save state for cleanup
/dict_count countdictstack def % Count objects on dict stack
/op_count count 1 sub def      % Count objects on operand stack
userdict begin                 % Push userdict on dict stack
/showpage { } def              % Redefine showpage, { } = null proc
0 setgray 0 setlinecap         % Prepare graphics state
1 setlinewidth 0 setlinejoin
10 setmiterlimit [ ] 0 setdash newpath
/languagelevel where           % If level not equal to 1 then
{pop languagelevel             % set strokeadjust and
1 ne                           % overprint to their defaults.
{false setstrokeadjust false setoverprint
} if
} if
} bd
/EndEPSF { %def
count op_count sub {pop} repeat            % Clean up stacks
countdictstack dict_count sub {end} repeat
b4_Inc_state restore
} bd
%%EndResource
%FOPBeginFontDict
%%IncludeResource: font Courier-Oblique
%%IncludeResource: font Courier-BoldOblique
%%IncludeResource: font Courier-Bold
%%IncludeResource: font ZapfDingbats
%%IncludeResource: font Symbol
%%IncludeResource: font Helvetica
%%IncludeResource: font Helvetica-Oblique
%%IncludeResource: font Helvetica-Bold
%%IncludeResource: font Helvetica-BoldOblique
%%IncludeResource: font Times-Roman
%%IncludeResource: font Times-Italic
%%IncludeResource: font Times-Bold
%%IncludeResource: font Times-BoldItalic
%%IncludeResource: font Courier
%FOPEndFontDict
%%BeginResource: encoding WinAnsiEncoding
/WinAnsiEncoding [
/.notdef /.notdef /.notdef /.notdef /.notdef
/.notdef /.notdef /.notdef /.notdef /.notdef
/.notdef /.notdef /.notdef /.notdef /.notdef
/.notdef /.notdef /.notdef /.notdef /.notdef
/.notdef /.notdef /.notdef /.notdef /.notdef
/.notdef /.notdef /.notdef /.notdef /.notdef
/.notdef /.notdef /space /exclam /quotedbl
/numbersign /dollar /percent /ampersand /quotesingle
/parenleft /parenright /asterisk /plus /comma
/hyphen /period /slash /zero /one
/two /three /four /five /six
/seven /eight /nine /colon /semicolon
/less /equal /greater /question /at
/A /B /C /D /E
/F /G /H /I /J
/K /L /M /N /O
/P /Q /R /S /T
/U /V /W /X /Y
/Z /bracketleft /backslash /bracketright /asciicircum
/underscore /quoteleft /a /b /c
/d /e /f /g /h
/i /j /k /l /m
/n /o /p /q /r
/s /t /u /v /w
/x /y /z /braceleft /bar
/braceright /asciitilde /bullet /Euro /bullet
/quotesinglbase /florin /quotedblbase /ellipsis /dagger
/daggerdbl /circumflex /perthousand /Scaron /guilsinglleft
/OE /bullet /Zcaron /bullet /bullet
/quoteleft /quoteright /quotedblleft /quotedblright /bullet
/endash /emdash /asciitilde /trademark /scaron
/guilsinglright /oe /bullet /zcaron /Ydieresis
/space /exclamdown /cent /sterling /currency
/yen /brokenbar /section /dieresis /copyright
/ordfeminine /guillemotleft /logicalnot /sfthyphen /registered
/macron /degree /plusminus /twosuperior /threesuperior
/acute /mu /paragraph /middot /cedilla
/onesuperior /ordmasculine /guillemotright /onequarter /onehalf
/threequarters /questiondown /Agrave /Aacute /Acircumflex
/Atilde /Adieresis /Aring /AE /Ccedilla
/Egrave /Eacute /Ecircumflex /Edieresis /Igrave
/Iacute /Icircumflex /Idieresis /Eth /Ntilde
/Ograve /Oacute /Ocircumflex /Otilde /Odieresis
/multiply /Oslash /Ugrave /Uacute /Ucircumflex
/Udieresis /Yacute /Thorn /germandbls /agrave
/aacute /acircumflex /atilde /adieresis /aring
/ae /ccedilla /egrave /eacute /ecircumflex
/edieresis /igrave /iacute /icircumflex /idieresis
/eth /ntilde /ograve /oacute /ocircumflex
/otilde /odieresis /divide /oslash /ugrave
/uacute /ucircumflex /udieresis /yacute /thorn
/ydieresis
] def
%%EndResource
%FOPBeginFontReencode
/Courier-Oblique findfont
dup length dict begin
  {1 index /FID ne {def} {pop pop} ifelse} forall
  /Encoding WinAnsiEncoding def
  currentdict
end
/Courier-Oblique exch definefont pop
/Courier-BoldOblique findfont
dup length dict begin
  {1 index /FID ne {def} {pop pop} ifelse} forall
  /Encoding WinAnsiEncoding def
  currentdict
end
/Courier-BoldOblique exch definefont pop
/Courier-Bold findfont
dup length dict begin
  {1 index /FID ne {def} {pop pop} ifelse} forall
  /Encoding WinAnsiEncoding def
  currentdict
end
/Courier-Bold exch definefont pop
/Helvetica findfont
dup length dict begin
  {1 index /FID ne {def} {pop pop} ifelse} forall
  /Encoding WinAnsiEncoding def
  currentdict
end
/Helvetica exch definefont pop
/Helvetica-Oblique findfont
dup length dict begin
  {1 index /FID ne {def} {pop pop} ifelse} forall
  /Encoding WinAnsiEncoding def
  currentdict
end
/Helvetica-Oblique exch definefont pop
/Helvetica-Bold findfont
dup length dict begin
  {1 index /FID ne {def} {pop pop} ifelse} forall
  /Encoding WinAnsiEncoding def
  currentdict
end
/Helvetica-Bold exch definefont pop
/Helvetica-BoldOblique findfont
dup length dict begin
  {1 index /FID ne {def} {pop pop} ifelse} forall
  /Encoding WinAnsiEncoding def
  currentdict
end
/Helvetica-BoldOblique exch definefont pop
/Times-Roman findfont
dup length dict begin
  {1 index /FID ne {def} {pop pop} ifelse} forall
  /Encoding WinAnsiEncoding def
  currentdict
end
/Times-Roman exch definefont pop
/Times-Italic findfont
dup length dict begin
  {1 index /FID ne {def} {pop pop} ifelse} forall
  /Encoding WinAnsiEncoding def
  currentdict
end
/Times-Italic exch definefont pop
/Times-Bold findfont
dup length dict begin
  {1 index /FID ne {def} {pop pop} ifelse} forall
  /Encoding WinAnsiEncoding def
  currentdict
end
/Times-Bold exch definefont pop
/Times-BoldItalic findfont
dup length dict begin
  {1 index /FID ne {def} {pop pop} ifelse} forall
  /Encoding WinAnsiEncoding def
  currentdict
end
/Times-BoldItalic exch definefont pop
/Courier findfont
dup length dict begin
  {1 index /FID ne {def} {pop pop} ifelse} forall
  /Encoding WinAnsiEncoding def
  currentdict
end
/Courier exch definefont pop
%FOPEndFontReencode
%%EndProlog
%%Page: 1 1
%%PageBoundingBox: 0 0 454 312
%%BeginPageSetup
N
   19     3 M
  434     3 L
  434   298 L
   19   298 L
cp
clip
[1 0 0 -1 0 312] CT
%%EndPageSetup
GS
[0.75843 0 0 0.75866 0 0.189] CT
1 GC
N
0 0 598 411 re
f
GR
GS
[0.75843 0 0 0.75866 0 0.189] CT
1 GC
N
0 0 598 411 re
f
GR
GS
[0.75843 0 0 0.75866 0 0.189] CT
1 GC
N
78 366 M
541 366 L
541 31 L
78 31 L
cp
f
GR
GS
[0.75843 0 0 0.75866 0 0.189] CT
0.873 GC
1 LJ
0.66 LW
N
78 366 M
78 31 L
S
GR
GS
[0.75843 0 0 0.75866 0 0.189] CT
0.873 GC
1 LJ
0.66 LW
N
155.167 366 M
155.167 31 L
S
GR
GS
[0.75843 0 0 0.75866 0 0.189] CT
0.873 GC
1 LJ
0.66 LW
N
232.333 366 M
232.333 31 L
S
GR
GS
[0.75843 0 0 0.75866 0 0.189] CT
0.873 GC
1 LJ
0.66 LW
N
309.5 366 M
309.5 31 L
S
GR
GS
[0.75843 0 0 0.75866 0 0.189] CT
0.873 GC
1 LJ
0.66 LW
N
386.667 366 M
386.667 31 L
S
GR
GS
[0.75843 0 0 0.75866 0 0.189] CT
0.873 GC
1 LJ
0.66 LW
N
463.833 366 M
463.833 31 L
S
GR
GS
[0.75843 0 0 0.75866 0 0.189] CT
0.873 GC
1 LJ
0.66 LW
N
541 366 M
541 31 L
S
GR
GS
[0.75843 0 0 0.75866 0 0.189] CT
0.775 GC
[1 3] 0 setdash
2 LJ
0.66 LW
N
541 349.193 M
78 349.193 L
S
GR
GS
[0.75843 0 0 0.75866 0 0.189] CT
0.775 GC
[1 3] 0 setdash
2 LJ
0.66 LW
N
541 339.361 M
78 339.361 L
S
GR
GS
[0.75843 0 0 0.75866 0 0.189] CT
0.775 GC
[1 3] 0 setdash
2 LJ
0.66 LW
N
541 332.385 M
78 332.385 L
S
GR
GS
[0.75843 0 0 0.75866 0 0.189] CT
0.775 GC
[1 3] 0 setdash
2 LJ
0.66 LW
N
541 326.974 M
78 326.974 L
S
GR
GS
[0.75843 0 0 0.75866 0 0.189] CT
0.775 GC
[1 3] 0 setdash
2 LJ
0.66 LW
N
541 322.553 M
78 322.553 L
S
GR
GS
[0.75843 0 0 0.75866 0 0.189] CT
0.775 GC
[1 3] 0 setdash
2 LJ
0.66 LW
N
541 318.815 M
78 318.815 L
S
GR
GS
[0.75843 0 0 0.75866 0 0.189] CT
0.775 GC
[1 3] 0 setdash
2 LJ
0.66 LW
N
541 315.577 M
78 315.577 L
S
GR
GS
[0.75843 0 0 0.75866 0 0.189] CT
0.775 GC
[1 3] 0 setdash
2 LJ
0.66 LW
N
541 312.721 M
78 312.721 L
S
GR
GS
[0.75843 0 0 0.75866 0 0.189] CT
0.775 GC
[1 3] 0 setdash
2 LJ
0.66 LW
N
541 293.359 M
78 293.359 L
S
GR
GS
[0.75843 0 0 0.75866 0 0.189] CT
0.775 GC
[1 3] 0 setdash
2 LJ
0.66 LW
N
541 283.527 M
78 283.527 L
S
GR
GS
[0.75843 0 0 0.75866 0 0.189] CT
0.775 GC
[1 3] 0 setdash
2 LJ
0.66 LW
N
541 276.552 M
78 276.552 L
S
GR
GS
[0.75843 0 0 0.75866 0 0.189] CT
0.775 GC
[1 3] 0 setdash
2 LJ
0.66 LW
N
541 271.141 M
78 271.141 L
S
GR
GS
[0.75843 0 0 0.75866 0 0.189] CT
0.775 GC
[1 3] 0 setdash
2 LJ
0.66 LW
N
541 266.72 M
78 266.72 L
S
GR
GS
[0.75843 0 0 0.75866 0 0.189] CT
0.775 GC
[1 3] 0 setdash
2 LJ
0.66 LW
N
541 262.982 M
78 262.982 L
S
GR
GS
[0.75843 0 0 0.75866 0 0.189] CT
0.775 GC
[1 3] 0 setdash
2 LJ
0.66 LW
N
541 259.744 M
78 259.744 L
S
GR
GS
[0.75843 0 0 0.75866 0 0.189] CT
0.775 GC
[1 3] 0 setdash
2 LJ
0.66 LW
N
541 256.888 M
78 256.888 L
S
GR
GS
[0.75843 0 0 0.75866 0 0.189] CT
0.775 GC
[1 3] 0 setdash
2 LJ
0.66 LW
N
541 254.333 M
78 254.333 L
S
GR
GS
[0.75843 0 0 0.75866 0 0.189] CT
0.775 GC
[1 3] 0 setdash
2 LJ
0.66 LW
N
541 237.526 M
78 237.526 L
S
GR
GS
[0.75843 0 0 0.75866 0 0.189] CT
0.775 GC
[1 3] 0 setdash
2 LJ
0.66 LW
N
541 227.694 M
78 227.694 L
S
GR
GS
[0.75843 0 0 0.75866 0 0.189] CT
0.775 GC
[1 3] 0 setdash
2 LJ
0.66 LW
N
541 220.718 M
78 220.718 L
S
GR
GS
[0.75843 0 0 0.75866 0 0.189] CT
0.775 GC
[1 3] 0 setdash
2 LJ
0.66 LW
N
541 215.308 M
78 215.308 L
S
GR
GS
[0.75843 0 0 0.75866 0 0.189] CT
0.775 GC
[1 3] 0 setdash
2 LJ
0.66 LW
N
541 210.887 M
78 210.887 L
S
GR
GS
[0.75843 0 0 0.75866 0 0.189] CT
0.775 GC
[1 3] 0 setdash
2 LJ
0.66 LW
N
541 207.149 M
78 207.149 L
S
GR
GS
[0.75843 0 0 0.75866 0 0.189] CT
0.775 GC
[1 3] 0 setdash
2 LJ
0.66 LW
N
541 203.911 M
78 203.911 L
S
GR
GS
[0.75843 0 0 0.75866 0 0.189] CT
0.775 GC
[1 3] 0 setdash
2 LJ
0.66 LW
N
541 201.055 M
78 201.055 L
S
GR
GS
[0.75843 0 0 0.75866 0 0.189] CT
0.775 GC
[1 3] 0 setdash
2 LJ
0.66 LW
N
541 181.692 M
78 181.692 L
S
GR
GS
[0.75843 0 0 0.75866 0 0.189] CT
0.775 GC
[1 3] 0 setdash
2 LJ
0.66 LW
N
541 171.861 M
78 171.861 L
S
GR
GS
[0.75843 0 0 0.75866 0 0.189] CT
0.775 GC
[1 3] 0 setdash
2 LJ
0.66 LW
N
541 164.885 M
78 164.885 L
S
GR
GS
[0.75843 0 0 0.75866 0 0.189] CT
0.775 GC
[1 3] 0 setdash
2 LJ
0.66 LW
N
541 159.474 M
78 159.474 L
S
GR
GS
[0.75843 0 0 0.75866 0 0.189] CT
0.775 GC
[1 3] 0 setdash
2 LJ
0.66 LW
N
541 155.053 M
78 155.053 L
S
GR
GS
[0.75843 0 0 0.75866 0 0.189] CT
0.775 GC
[1 3] 0 setdash
2 LJ
0.66 LW
N
541 151.315 M
78 151.315 L
S
GR
GS
[0.75843 0 0 0.75866 0 0.189] CT
0.775 GC
[1 3] 0 setdash
2 LJ
0.66 LW
N
541 148.077 M
78 148.077 L
S
GR
GS
[0.75843 0 0 0.75866 0 0.189] CT
0.775 GC
[1 3] 0 setdash
2 LJ
0.66 LW
N
541 145.221 M
78 145.221 L
S
GR
GS
[0.75843 0 0 0.75866 0 0.189] CT
0.775 GC
[1 3] 0 setdash
2 LJ
0.66 LW
N
541 125.859 M
78 125.859 L
S
GR
GS
[0.75843 0 0 0.75866 0 0.189] CT
0.775 GC
[1 3] 0 setdash
2 LJ
0.66 LW
N
541 116.027 M
78 116.027 L
S
GR
GS
[0.75843 0 0 0.75866 0 0.189] CT
0.775 GC
[1 3] 0 setdash
2 LJ
0.66 LW
N
541 109.052 M
78 109.052 L
S
GR
GS
[0.75843 0 0 0.75866 0 0.189] CT
0.775 GC
[1 3] 0 setdash
2 LJ
0.66 LW
N
541 103.641 M
78 103.641 L
S
GR
GS
[0.75843 0 0 0.75866 0 0.189] CT
0.775 GC
[1 3] 0 setdash
2 LJ
0.66 LW
N
541 99.22 M
78 99.22 L
S
GR
GS
[0.75843 0 0 0.75866 0 0.189] CT
0.775 GC
[1 3] 0 setdash
2 LJ
0.66 LW
N
541 95.482 M
78 95.482 L
S
GR
GS
[0.75843 0 0 0.75866 0 0.189] CT
0.775 GC
[1 3] 0 setdash
2 LJ
0.66 LW
N
541 92.244 M
78 92.244 L
S
GR
GS
[0.75843 0 0 0.75866 0 0.189] CT
0.775 GC
[1 3] 0 setdash
2 LJ
0.66 LW
N
541 89.388 M
78 89.388 L
S
GR
GS
[0.75843 0 0 0.75866 0 0.189] CT
0.775 GC
[1 3] 0 setdash
2 LJ
0.66 LW
N
541 70.026 M
78 70.026 L
S
GR
GS
[0.75843 0 0 0.75866 0 0.189] CT
0.775 GC
[1 3] 0 setdash
2 LJ
0.66 LW
N
541 60.194 M
78 60.194 L
S
GR
GS
[0.75843 0 0 0.75866 0 0.189] CT
0.775 GC
[1 3] 0 setdash
2 LJ
0.66 LW
N
541 53.218 M
78 53.218 L
S
GR
GS
[0.75843 0 0 0.75866 0 0.189] CT
0.775 GC
[1 3] 0 setdash
2 LJ
0.66 LW
N
541 47.808 M
78 47.808 L
S
GR
GS
[0.75843 0 0 0.75866 0 0.189] CT
0.775 GC
[1 3] 0 setdash
2 LJ
0.66 LW
N
541 43.387 M
78 43.387 L
S
GR
GS
[0.75843 0 0 0.75866 0 0.189] CT
0.775 GC
[1 3] 0 setdash
2 LJ
0.66 LW
N
541 39.649 M
78 39.649 L
S
GR
GS
[0.75843 0 0 0.75866 0 0.189] CT
0.775 GC
[1 3] 0 setdash
2 LJ
0.66 LW
N
541 36.411 M
78 36.411 L
S
GR
GS
[0.75843 0 0 0.75866 0 0.189] CT
0.775 GC
[1 3] 0 setdash
2 LJ
0.66 LW
N
541 33.555 M
78 33.555 L
S
GR
GS
[0.75843 0 0 0.75866 0 0.189] CT
0.873 GC
1 LJ
0.66 LW
N
541 366 M
78 366 L
S
GR
GS
[0.75843 0 0 0.75866 0 0.189] CT
0.873 GC
1 LJ
0.66 LW
N
541 310.167 M
78 310.167 L
S
GR
GS
[0.75843 0 0 0.75866 0 0.189] CT
0.873 GC
1 LJ
0.66 LW
N
541 254.333 M
78 254.333 L
S
GR
GS
[0.75843 0 0 0.75866 0 0.189] CT
0.873 GC
1 LJ
0.66 LW
N
541 198.5 M
78 198.5 L
S
GR
GS
[0.75843 0 0 0.75866 0 0.189] CT
0.873 GC
1 LJ
0.66 LW
N
541 142.667 M
78 142.667 L
S
GR
GS
[0.75843 0 0 0.75866 0 0.189] CT
0.873 GC
1 LJ
0.66 LW
N
541 86.833 M
78 86.833 L
S
GR
GS
[0.75843 0 0 0.75866 0 0.189] CT
0.873 GC
1 LJ
0.66 LW
N
541 31 M
78 31 L
S
GR
GS
[0.75843 0 0 0.75866 0 0.189] CT
0.149 GC
2 setlinecap
1 LJ
0.66 LW
N
78 366 M
541 366 L
S
GR
GS
[0.75843 0 0 0.75866 0 0.189] CT
0.149 GC
2 setlinecap
1 LJ
0.66 LW
N
78 31 M
541 31 L
S
GR
GS
[0.75843 0 0 0.75866 0 0.189] CT
0.149 GC
2 setlinecap
1 LJ
0.66 LW
N
78 366 M
78 361.37 L
S
GR
GS
[0.75843 0 0 0.75866 0 0.189] CT
0.149 GC
2 setlinecap
1 LJ
0.66 LW
N
155.167 366 M
155.167 361.37 L
S
GR
GS
[0.75843 0 0 0.75866 0 0.189] CT
0.149 GC
2 setlinecap
1 LJ
0.66 LW
N
232.333 366 M
232.333 361.37 L
S
GR
GS
[0.75843 0 0 0.75866 0 0.189] CT
0.149 GC
2 setlinecap
1 LJ
0.66 LW
N
309.5 366 M
309.5 361.37 L
S
GR
GS
[0.75843 0 0 0.75866 0 0.189] CT
0.149 GC
2 setlinecap
1 LJ
0.66 LW
N
386.667 366 M
386.667 361.37 L
S
GR
GS
[0.75843 0 0 0.75866 0 0.189] CT
0.149 GC
2 setlinecap
1 LJ
0.66 LW
N
463.833 366 M
463.833 361.37 L
S
GR
GS
[0.75843 0 0 0.75866 0 0.189] CT
0.149 GC
2 setlinecap
1 LJ
0.66 LW
N
541 366 M
541 361.37 L
S
GR
GS
[0.75843 0 0 0.75866 0 0.189] CT
0.149 GC
2 setlinecap
1 LJ
0.66 LW
N
78 31 M
78 35.63 L
S
GR
GS
[0.75843 0 0 0.75866 0 0.189] CT
0.149 GC
2 setlinecap
1 LJ
0.66 LW
N
155.167 31 M
155.167 35.63 L
S
GR
GS
[0.75843 0 0 0.75866 0 0.189] CT
0.149 GC
2 setlinecap
1 LJ
0.66 LW
N
232.333 31 M
232.333 35.63 L
S
GR
GS
[0.75843 0 0 0.75866 0 0.189] CT
0.149 GC
2 setlinecap
1 LJ
0.66 LW
N
309.5 31 M
309.5 35.63 L
S
GR
GS
[0.75843 0 0 0.75866 0 0.189] CT
0.149 GC
2 setlinecap
1 LJ
0.66 LW
N
386.667 31 M
386.667 35.63 L
S
GR
GS
[0.75843 0 0 0.75866 0 0.189] CT
0.149 GC
2 setlinecap
1 LJ
0.66 LW
N
463.833 31 M
463.833 35.63 L
S
GR
GS
[0.75843 0 0 0.75866 0 0.189] CT
0.149 GC
2 setlinecap
1 LJ
0.66 LW
N
541 31 M
541 35.63 L
S
GR
GS
[0.75843 0 0 0.75866 59.15782 281.86417] CT
0.149 GC
/Helvetica 13.194 F
GS
[1 0 0 1 0 0] CT
-11 13 moveto 
1 -1 scale
(-20) t 
GR
GR
GS
[0.75843 0 0 0.75866 117.68362 281.86417] CT
0.149 GC
/Helvetica 13.194 F
GS
[1 0 0 1 0 0] CT
-11 13 moveto 
1 -1 scale
(-18) t 
GR
GR
GS
[0.75843 0 0 0.75866 176.20942 281.86417] CT
0.149 GC
/Helvetica 13.194 F
GS
[1 0 0 1 0 0] CT
-11 13 moveto 
1 -1 scale
(-16) t 
GR
GR
GS
[0.75843 0 0 0.75866 234.73521 281.86417] CT
0.149 GC
/Helvetica 13.194 F
GS
[1 0 0 1 0 0] CT
-11 13 moveto 
1 -1 scale
(-14) t 
GR
GR
GS
[0.75843 0 0 0.75866 293.26101 281.86417] CT
0.149 GC
/Helvetica 13.194 F
GS
[1 0 0 1 0 0] CT
-11 13 moveto 
1 -1 scale
(-12) t 
GR
GR
GS
[0.75843 0 0 0.75866 351.78678 281.86417] CT
0.149 GC
/Helvetica 13.194 F
GS
[1 0 0 1 0 0] CT
-11 13 moveto 
1 -1 scale
(-10) t 
GR
GR
GS
[0.75843 0 0 0.75866 410.31259 281.86417] CT
0.149 GC
/Helvetica 13.194 F
GS
[1 0 0 1 0 0] CT
-7 13 moveto 
1 -1 scale
(-8) t 
GR
GR
GS
[0.75843 0 0 0.75866 234.73537 295.76248] CT
0.149 GC
/Helvetica 14.514 F
GS
[1 0 0 1 0 0] CT
-88 14 moveto 
1 -1 scale
(GMSK Signal Power [dB]) t 
GR
GR
GS
[0.75843 0 0 0.75866 0 0.189] CT
0.149 GC
2 setlinecap
1 LJ
0.66 LW
N
78 366 M
78 31 L
S
GR
GS
[0.75843 0 0 0.75866 0 0.189] CT
0.149 GC
2 setlinecap
1 LJ
0.66 LW
N
541 366 M
541 31 L
S
GR
GS
[0.75843 0 0 0.75866 0 0.189] CT
0.149 GC
2 setlinecap
1 LJ
0.66 LW
N
78 366 M
82.63 366 L
S
GR
GS
[0.75843 0 0 0.75866 0 0.189] CT
0.149 GC
2 setlinecap
1 LJ
0.66 LW
N
78 310.167 M
82.63 310.167 L
S
GR
GS
[0.75843 0 0 0.75866 0 0.189] CT
0.149 GC
2 setlinecap
1 LJ
0.66 LW
N
78 254.333 M
82.63 254.333 L
S
GR
GS
[0.75843 0 0 0.75866 0 0.189] CT
0.149 GC
2 setlinecap
1 LJ
0.66 LW
N
78 198.5 M
82.63 198.5 L
S
GR
GS
[0.75843 0 0 0.75866 0 0.189] CT
0.149 GC
2 setlinecap
1 LJ
0.66 LW
N
78 142.667 M
82.63 142.667 L
S
GR
GS
[0.75843 0 0 0.75866 0 0.189] CT
0.149 GC
2 setlinecap
1 LJ
0.66 LW
N
78 86.833 M
82.63 86.833 L
S
GR
GS
[0.75843 0 0 0.75866 0 0.189] CT
0.149 GC
2 setlinecap
1 LJ
0.66 LW
N
78 31 M
82.63 31 L
S
GR
GS
[0.75843 0 0 0.75866 0 0.189] CT
0.149 GC
2 setlinecap
1 LJ
0.66 LW
N
541 366 M
536.37 366 L
S
GR
GS
[0.75843 0 0 0.75866 0 0.189] CT
0.149 GC
2 setlinecap
1 LJ
0.66 LW
N
541 310.167 M
536.37 310.167 L
S
GR
GS
[0.75843 0 0 0.75866 0 0.189] CT
0.149 GC
2 setlinecap
1 LJ
0.66 LW
N
541 254.333 M
536.37 254.333 L
S
GR
GS
[0.75843 0 0 0.75866 0 0.189] CT
0.149 GC
2 setlinecap
1 LJ
0.66 LW
N
541 198.5 M
536.37 198.5 L
S
GR
GS
[0.75843 0 0 0.75866 0 0.189] CT
0.149 GC
2 setlinecap
1 LJ
0.66 LW
N
541 142.667 M
536.37 142.667 L
S
GR
GS
[0.75843 0 0 0.75866 0 0.189] CT
0.149 GC
2 setlinecap
1 LJ
0.66 LW
N
541 86.833 M
536.37 86.833 L
S
GR
GS
[0.75843 0 0 0.75866 0 0.189] CT
0.149 GC
2 setlinecap
1 LJ
0.66 LW
N
541 31 M
536.37 31 L
S
GR
GS
[0.75843 0 0 0.75866 0 0.189] CT
0.149 GC
2 setlinecap
1 LJ
0.66 LW
N
78 366 M
80.315 366 L
S
GR
GS
[0.75843 0 0 0.75866 0 0.189] CT
0.149 GC
2 setlinecap
1 LJ
0.66 LW
N
78 349.193 M
80.315 349.193 L
S
GR
GS
[0.75843 0 0 0.75866 0 0.189] CT
0.149 GC
2 setlinecap
1 LJ
0.66 LW
N
78 339.361 M
80.315 339.361 L
S
GR
GS
[0.75843 0 0 0.75866 0 0.189] CT
0.149 GC
2 setlinecap
1 LJ
0.66 LW
N
78 332.385 M
80.315 332.385 L
S
GR
GS
[0.75843 0 0 0.75866 0 0.189] CT
0.149 GC
2 setlinecap
1 LJ
0.66 LW
N
78 326.974 M
80.315 326.974 L
S
GR
GS
[0.75843 0 0 0.75866 0 0.189] CT
0.149 GC
2 setlinecap
1 LJ
0.66 LW
N
78 322.553 M
80.315 322.553 L
S
GR
GS
[0.75843 0 0 0.75866 0 0.189] CT
0.149 GC
2 setlinecap
1 LJ
0.66 LW
N
78 318.815 M
80.315 318.815 L
S
GR
GS
[0.75843 0 0 0.75866 0 0.189] CT
0.149 GC
2 setlinecap
1 LJ
0.66 LW
N
78 315.577 M
80.315 315.577 L
S
GR
GS
[0.75843 0 0 0.75866 0 0.189] CT
0.149 GC
2 setlinecap
1 LJ
0.66 LW
N
78 312.721 M
80.315 312.721 L
S
GR
GS
[0.75843 0 0 0.75866 0 0.189] CT
0.149 GC
2 setlinecap
1 LJ
0.66 LW
N
78 310.167 M
80.315 310.167 L
S
GR
GS
[0.75843 0 0 0.75866 0 0.189] CT
0.149 GC
2 setlinecap
1 LJ
0.66 LW
N
78 293.359 M
80.315 293.359 L
S
GR
GS
[0.75843 0 0 0.75866 0 0.189] CT
0.149 GC
2 setlinecap
1 LJ
0.66 LW
N
78 283.527 M
80.315 283.527 L
S
GR
GS
[0.75843 0 0 0.75866 0 0.189] CT
0.149 GC
2 setlinecap
1 LJ
0.66 LW
N
78 276.552 M
80.315 276.552 L
S
GR
GS
[0.75843 0 0 0.75866 0 0.189] CT
0.149 GC
2 setlinecap
1 LJ
0.66 LW
N
78 271.141 M
80.315 271.141 L
S
GR
GS
[0.75843 0 0 0.75866 0 0.189] CT
0.149 GC
2 setlinecap
1 LJ
0.66 LW
N
78 266.72 M
80.315 266.72 L
S
GR
GS
[0.75843 0 0 0.75866 0 0.189] CT
0.149 GC
2 setlinecap
1 LJ
0.66 LW
N
78 262.982 M
80.315 262.982 L
S
GR
GS
[0.75843 0 0 0.75866 0 0.189] CT
0.149 GC
2 setlinecap
1 LJ
0.66 LW
N
78 259.744 M
80.315 259.744 L
S
GR
GS
[0.75843 0 0 0.75866 0 0.189] CT
0.149 GC
2 setlinecap
1 LJ
0.66 LW
N
78 256.888 M
80.315 256.888 L
S
GR
GS
[0.75843 0 0 0.75866 0 0.189] CT
0.149 GC
2 setlinecap
1 LJ
0.66 LW
N
78 254.333 M
80.315 254.333 L
S
GR
GS
[0.75843 0 0 0.75866 0 0.189] CT
0.149 GC
2 setlinecap
1 LJ
0.66 LW
N
78 254.333 M
80.315 254.333 L
S
GR
GS
[0.75843 0 0 0.75866 0 0.189] CT
0.149 GC
2 setlinecap
1 LJ
0.66 LW
N
78 237.526 M
80.315 237.526 L
S
GR
GS
[0.75843 0 0 0.75866 0 0.189] CT
0.149 GC
2 setlinecap
1 LJ
0.66 LW
N
78 227.694 M
80.315 227.694 L
S
GR
GS
[0.75843 0 0 0.75866 0 0.189] CT
0.149 GC
2 setlinecap
1 LJ
0.66 LW
N
78 220.718 M
80.315 220.718 L
S
GR
GS
[0.75843 0 0 0.75866 0 0.189] CT
0.149 GC
2 setlinecap
1 LJ
0.66 LW
N
78 215.308 M
80.315 215.308 L
S
GR
GS
[0.75843 0 0 0.75866 0 0.189] CT
0.149 GC
2 setlinecap
1 LJ
0.66 LW
N
78 210.887 M
80.315 210.887 L
S
GR
GS
[0.75843 0 0 0.75866 0 0.189] CT
0.149 GC
2 setlinecap
1 LJ
0.66 LW
N
78 207.149 M
80.315 207.149 L
S
GR
GS
[0.75843 0 0 0.75866 0 0.189] CT
0.149 GC
2 setlinecap
1 LJ
0.66 LW
N
78 203.911 M
80.315 203.911 L
S
GR
GS
[0.75843 0 0 0.75866 0 0.189] CT
0.149 GC
2 setlinecap
1 LJ
0.66 LW
N
78 201.055 M
80.315 201.055 L
S
GR
GS
[0.75843 0 0 0.75866 0 0.189] CT
0.149 GC
2 setlinecap
1 LJ
0.66 LW
N
78 198.5 M
80.315 198.5 L
S
GR
GS
[0.75843 0 0 0.75866 0 0.189] CT
0.149 GC
2 setlinecap
1 LJ
0.66 LW
N
78 181.692 M
80.315 181.692 L
S
GR
GS
[0.75843 0 0 0.75866 0 0.189] CT
0.149 GC
2 setlinecap
1 LJ
0.66 LW
N
78 171.861 M
80.315 171.861 L
S
GR
GS
[0.75843 0 0 0.75866 0 0.189] CT
0.149 GC
2 setlinecap
1 LJ
0.66 LW
N
78 164.885 M
80.315 164.885 L
S
GR
GS
[0.75843 0 0 0.75866 0 0.189] CT
0.149 GC
2 setlinecap
1 LJ
0.66 LW
N
78 159.474 M
80.315 159.474 L
S
GR
GS
[0.75843 0 0 0.75866 0 0.189] CT
0.149 GC
2 setlinecap
1 LJ
0.66 LW
N
78 155.053 M
80.315 155.053 L
S
GR
GS
[0.75843 0 0 0.75866 0 0.189] CT
0.149 GC
2 setlinecap
1 LJ
0.66 LW
N
78 151.315 M
80.315 151.315 L
S
GR
GS
[0.75843 0 0 0.75866 0 0.189] CT
0.149 GC
2 setlinecap
1 LJ
0.66 LW
N
78 148.077 M
80.315 148.077 L
S
GR
GS
[0.75843 0 0 0.75866 0 0.189] CT
0.149 GC
2 setlinecap
1 LJ
0.66 LW
N
78 145.221 M
80.315 145.221 L
S
GR
GS
[0.75843 0 0 0.75866 0 0.189] CT
0.149 GC
2 setlinecap
1 LJ
0.66 LW
N
78 142.667 M
80.315 142.667 L
S
GR
GS
[0.75843 0 0 0.75866 0 0.189] CT
0.149 GC
2 setlinecap
1 LJ
0.66 LW
N
78 125.859 M
80.315 125.859 L
S
GR
GS
[0.75843 0 0 0.75866 0 0.189] CT
0.149 GC
2 setlinecap
1 LJ
0.66 LW
N
78 116.027 M
80.315 116.027 L
S
GR
GS
[0.75843 0 0 0.75866 0 0.189] CT
0.149 GC
2 setlinecap
1 LJ
0.66 LW
N
78 109.052 M
80.315 109.052 L
S
GR
GS
[0.75843 0 0 0.75866 0 0.189] CT
0.149 GC
2 setlinecap
1 LJ
0.66 LW
N
78 103.641 M
80.315 103.641 L
S
GR
GS
[0.75843 0 0 0.75866 0 0.189] CT
0.149 GC
2 setlinecap
1 LJ
0.66 LW
N
78 99.22 M
80.315 99.22 L
S
GR
GS
[0.75843 0 0 0.75866 0 0.189] CT
0.149 GC
2 setlinecap
1 LJ
0.66 LW
N
78 95.482 M
80.315 95.482 L
S
GR
GS
[0.75843 0 0 0.75866 0 0.189] CT
0.149 GC
2 setlinecap
1 LJ
0.66 LW
N
78 92.244 M
80.315 92.244 L
S
GR
GS
[0.75843 0 0 0.75866 0 0.189] CT
0.149 GC
2 setlinecap
1 LJ
0.66 LW
N
78 89.388 M
80.315 89.388 L
S
GR
GS
[0.75843 0 0 0.75866 0 0.189] CT
0.149 GC
2 setlinecap
1 LJ
0.66 LW
N
78 86.833 M
80.315 86.833 L
S
GR
GS
[0.75843 0 0 0.75866 0 0.189] CT
0.149 GC
2 setlinecap
1 LJ
0.66 LW
N
78 70.026 M
80.315 70.026 L
S
GR
GS
[0.75843 0 0 0.75866 0 0.189] CT
0.149 GC
2 setlinecap
1 LJ
0.66 LW
N
78 60.194 M
80.315 60.194 L
S
GR
GS
[0.75843 0 0 0.75866 0 0.189] CT
0.149 GC
2 setlinecap
1 LJ
0.66 LW
N
78 53.218 M
80.315 53.218 L
S
GR
GS
[0.75843 0 0 0.75866 0 0.189] CT
0.149 GC
2 setlinecap
1 LJ
0.66 LW
N
78 47.808 M
80.315 47.808 L
S
GR
GS
[0.75843 0 0 0.75866 0 0.189] CT
0.149 GC
2 setlinecap
1 LJ
0.66 LW
N
78 43.387 M
80.315 43.387 L
S
GR
GS
[0.75843 0 0 0.75866 0 0.189] CT
0.149 GC
2 setlinecap
1 LJ
0.66 LW
N
78 39.649 M
80.315 39.649 L
S
GR
GS
[0.75843 0 0 0.75866 0 0.189] CT
0.149 GC
2 setlinecap
1 LJ
0.66 LW
N
78 36.411 M
80.315 36.411 L
S
GR
GS
[0.75843 0 0 0.75866 0 0.189] CT
0.149 GC
2 setlinecap
1 LJ
0.66 LW
N
78 33.555 M
80.315 33.555 L
S
GR
GS
[0.75843 0 0 0.75866 0 0.189] CT
0.149 GC
2 setlinecap
1 LJ
0.66 LW
N
78 31 M
80.315 31 L
S
GR
GS
[0.75843 0 0 0.75866 0 0.189] CT
0.149 GC
2 setlinecap
1 LJ
0.66 LW
N
541 366 M
538.685 366 L
S
GR
GS
[0.75843 0 0 0.75866 0 0.189] CT
0.149 GC
2 setlinecap
1 LJ
0.66 LW
N
541 349.193 M
538.685 349.193 L
S
GR
GS
[0.75843 0 0 0.75866 0 0.189] CT
0.149 GC
2 setlinecap
1 LJ
0.66 LW
N
541 339.361 M
538.685 339.361 L
S
GR
GS
[0.75843 0 0 0.75866 0 0.189] CT
0.149 GC
2 setlinecap
1 LJ
0.66 LW
N
541 332.385 M
538.685 332.385 L
S
GR
GS
[0.75843 0 0 0.75866 0 0.189] CT
0.149 GC
2 setlinecap
1 LJ
0.66 LW
N
541 326.974 M
538.685 326.974 L
S
GR
GS
[0.75843 0 0 0.75866 0 0.189] CT
0.149 GC
2 setlinecap
1 LJ
0.66 LW
N
541 322.553 M
538.685 322.553 L
S
GR
GS
[0.75843 0 0 0.75866 0 0.189] CT
0.149 GC
2 setlinecap
1 LJ
0.66 LW
N
541 318.815 M
538.685 318.815 L
S
GR
GS
[0.75843 0 0 0.75866 0 0.189] CT
0.149 GC
2 setlinecap
1 LJ
0.66 LW
N
541 315.577 M
538.685 315.577 L
S
GR
GS
[0.75843 0 0 0.75866 0 0.189] CT
0.149 GC
2 setlinecap
1 LJ
0.66 LW
N
541 312.721 M
538.685 312.721 L
S
GR
GS
[0.75843 0 0 0.75866 0 0.189] CT
0.149 GC
2 setlinecap
1 LJ
0.66 LW
N
541 310.167 M
538.685 310.167 L
S
GR
GS
[0.75843 0 0 0.75866 0 0.189] CT
0.149 GC
2 setlinecap
1 LJ
0.66 LW
N
541 293.359 M
538.685 293.359 L
S
GR
GS
[0.75843 0 0 0.75866 0 0.189] CT
0.149 GC
2 setlinecap
1 LJ
0.66 LW
N
541 283.527 M
538.685 283.527 L
S
GR
GS
[0.75843 0 0 0.75866 0 0.189] CT
0.149 GC
2 setlinecap
1 LJ
0.66 LW
N
541 276.552 M
538.685 276.552 L
S
GR
GS
[0.75843 0 0 0.75866 0 0.189] CT
0.149 GC
2 setlinecap
1 LJ
0.66 LW
N
541 271.141 M
538.685 271.141 L
S
GR
GS
[0.75843 0 0 0.75866 0 0.189] CT
0.149 GC
2 setlinecap
1 LJ
0.66 LW
N
541 266.72 M
538.685 266.72 L
S
GR
GS
[0.75843 0 0 0.75866 0 0.189] CT
0.149 GC
2 setlinecap
1 LJ
0.66 LW
N
541 262.982 M
538.685 262.982 L
S
GR
GS
[0.75843 0 0 0.75866 0 0.189] CT
0.149 GC
2 setlinecap
1 LJ
0.66 LW
N
541 259.744 M
538.685 259.744 L
S
GR
GS
[0.75843 0 0 0.75866 0 0.189] CT
0.149 GC
2 setlinecap
1 LJ
0.66 LW
N
541 256.888 M
538.685 256.888 L
S
GR
GS
[0.75843 0 0 0.75866 0 0.189] CT
0.149 GC
2 setlinecap
1 LJ
0.66 LW
N
541 254.333 M
538.685 254.333 L
S
GR
GS
[0.75843 0 0 0.75866 0 0.189] CT
0.149 GC
2 setlinecap
1 LJ
0.66 LW
N
541 254.333 M
538.685 254.333 L
S
GR
GS
[0.75843 0 0 0.75866 0 0.189] CT
0.149 GC
2 setlinecap
1 LJ
0.66 LW
N
541 237.526 M
538.685 237.526 L
S
GR
GS
[0.75843 0 0 0.75866 0 0.189] CT
0.149 GC
2 setlinecap
1 LJ
0.66 LW
N
541 227.694 M
538.685 227.694 L
S
GR
GS
[0.75843 0 0 0.75866 0 0.189] CT
0.149 GC
2 setlinecap
1 LJ
0.66 LW
N
541 220.718 M
538.685 220.718 L
S
GR
GS
[0.75843 0 0 0.75866 0 0.189] CT
0.149 GC
2 setlinecap
1 LJ
0.66 LW
N
541 215.308 M
538.685 215.308 L
S
GR
GS
[0.75843 0 0 0.75866 0 0.189] CT
0.149 GC
2 setlinecap
1 LJ
0.66 LW
N
541 210.887 M
538.685 210.887 L
S
GR
GS
[0.75843 0 0 0.75866 0 0.189] CT
0.149 GC
2 setlinecap
1 LJ
0.66 LW
N
541 207.149 M
538.685 207.149 L
S
GR
GS
[0.75843 0 0 0.75866 0 0.189] CT
0.149 GC
2 setlinecap
1 LJ
0.66 LW
N
541 203.911 M
538.685 203.911 L
S
GR
GS
[0.75843 0 0 0.75866 0 0.189] CT
0.149 GC
2 setlinecap
1 LJ
0.66 LW
N
541 201.055 M
538.685 201.055 L
S
GR
GS
[0.75843 0 0 0.75866 0 0.189] CT
0.149 GC
2 setlinecap
1 LJ
0.66 LW
N
541 198.5 M
538.685 198.5 L
S
GR
GS
[0.75843 0 0 0.75866 0 0.189] CT
0.149 GC
2 setlinecap
1 LJ
0.66 LW
N
541 181.692 M
538.685 181.692 L
S
GR
GS
[0.75843 0 0 0.75866 0 0.189] CT
0.149 GC
2 setlinecap
1 LJ
0.66 LW
N
541 171.861 M
538.685 171.861 L
S
GR
GS
[0.75843 0 0 0.75866 0 0.189] CT
0.149 GC
2 setlinecap
1 LJ
0.66 LW
N
541 164.885 M
538.685 164.885 L
S
GR
GS
[0.75843 0 0 0.75866 0 0.189] CT
0.149 GC
2 setlinecap
1 LJ
0.66 LW
N
541 159.474 M
538.685 159.474 L
S
GR
GS
[0.75843 0 0 0.75866 0 0.189] CT
0.149 GC
2 setlinecap
1 LJ
0.66 LW
N
541 155.053 M
538.685 155.053 L
S
GR
GS
[0.75843 0 0 0.75866 0 0.189] CT
0.149 GC
2 setlinecap
1 LJ
0.66 LW
N
541 151.315 M
538.685 151.315 L
S
GR
GS
[0.75843 0 0 0.75866 0 0.189] CT
0.149 GC
2 setlinecap
1 LJ
0.66 LW
N
541 148.077 M
538.685 148.077 L
S
GR
GS
[0.75843 0 0 0.75866 0 0.189] CT
0.149 GC
2 setlinecap
1 LJ
0.66 LW
N
541 145.221 M
538.685 145.221 L
S
GR
GS
[0.75843 0 0 0.75866 0 0.189] CT
0.149 GC
2 setlinecap
1 LJ
0.66 LW
N
541 142.667 M
538.685 142.667 L
S
GR
GS
[0.75843 0 0 0.75866 0 0.189] CT
0.149 GC
2 setlinecap
1 LJ
0.66 LW
N
541 125.859 M
538.685 125.859 L
S
GR
GS
[0.75843 0 0 0.75866 0 0.189] CT
0.149 GC
2 setlinecap
1 LJ
0.66 LW
N
541 116.027 M
538.685 116.027 L
S
GR
GS
[0.75843 0 0 0.75866 0 0.189] CT
0.149 GC
2 setlinecap
1 LJ
0.66 LW
N
541 109.052 M
538.685 109.052 L
S
GR
GS
[0.75843 0 0 0.75866 0 0.189] CT
0.149 GC
2 setlinecap
1 LJ
0.66 LW
N
541 103.641 M
538.685 103.641 L
S
GR
GS
[0.75843 0 0 0.75866 0 0.189] CT
0.149 GC
2 setlinecap
1 LJ
0.66 LW
N
541 99.22 M
538.685 99.22 L
S
GR
GS
[0.75843 0 0 0.75866 0 0.189] CT
0.149 GC
2 setlinecap
1 LJ
0.66 LW
N
541 95.482 M
538.685 95.482 L
S
GR
GS
[0.75843 0 0 0.75866 0 0.189] CT
0.149 GC
2 setlinecap
1 LJ
0.66 LW
N
541 92.244 M
538.685 92.244 L
S
GR
GS
[0.75843 0 0 0.75866 0 0.189] CT
0.149 GC
2 setlinecap
1 LJ
0.66 LW
N
541 89.388 M
538.685 89.388 L
S
GR
GS
[0.75843 0 0 0.75866 0 0.189] CT
0.149 GC
2 setlinecap
1 LJ
0.66 LW
N
541 86.833 M
538.685 86.833 L
S
GR
GS
[0.75843 0 0 0.75866 0 0.189] CT
0.149 GC
2 setlinecap
1 LJ
0.66 LW
N
541 70.026 M
538.685 70.026 L
S
GR
GS
[0.75843 0 0 0.75866 0 0.189] CT
0.149 GC
2 setlinecap
1 LJ
0.66 LW
N
541 60.194 M
538.685 60.194 L
S
GR
GS
[0.75843 0 0 0.75866 0 0.189] CT
0.149 GC
2 setlinecap
1 LJ
0.66 LW
N
541 53.218 M
538.685 53.218 L
S
GR
GS
[0.75843 0 0 0.75866 0 0.189] CT
0.149 GC
2 setlinecap
1 LJ
0.66 LW
N
541 47.808 M
538.685 47.808 L
S
GR
GS
[0.75843 0 0 0.75866 0 0.189] CT
0.149 GC
2 setlinecap
1 LJ
0.66 LW
N
541 43.387 M
538.685 43.387 L
S
GR
GS
[0.75843 0 0 0.75866 0 0.189] CT
0.149 GC
2 setlinecap
1 LJ
0.66 LW
N
541 39.649 M
538.685 39.649 L
S
GR
GS
[0.75843 0 0 0.75866 0 0.189] CT
0.149 GC
2 setlinecap
1 LJ
0.66 LW
N
541 36.411 M
538.685 36.411 L
S
GR
GS
[0.75843 0 0 0.75866 0 0.189] CT
0.149 GC
2 setlinecap
1 LJ
0.66 LW
N
541 33.555 M
538.685 33.555 L
S
GR
GS
[0.75843 0 0 0.75866 0 0.189] CT
0.149 GC
2 setlinecap
1 LJ
0.66 LW
N
541 31 M
538.685 31 L
S
GR
GS
[0.75843 0 0 0.75866 34.12951 282.41209] CT
0.149 GC
/Helvetica 13.194 F
GS
[1 0 0 1 0 0] CT
0 0 moveto 
1 -1 scale
(10) t 
GR
GR
GS
[0.75843 0 0 0.75866 47.02288 277.86011] CT
0.149 GC
/Helvetica 10.556 F
GS
[1 0 0 1 0 0] CT
0 0 moveto 
1 -1 scale
(-6) t 
GR
GR
GS
[0.75843 0 0 0.75866 34.12951 239.9269] CT
0.149 GC
/Helvetica 13.194 F
GS
[1 0 0 1 0 0] CT
0 0 moveto 
1 -1 scale
(10) t 
GR
GR
GS
[0.75843 0 0 0.75866 47.02288 235.37491] CT
0.149 GC
/Helvetica 10.556 F
GS
[1 0 0 1 0 0] CT
0 0 moveto 
1 -1 scale
(-5) t 
GR
GR
GS
[0.75843 0 0 0.75866 34.12951 197.4417] CT
0.149 GC
/Helvetica 13.194 F
GS
[1 0 0 1 0 0] CT
0 0 moveto 
1 -1 scale
(10) t 
GR
GR
GS
[0.75843 0 0 0.75866 47.02288 192.88971] CT
0.149 GC
/Helvetica 10.556 F
GS
[1 0 0 1 0 0] CT
0 0 moveto 
1 -1 scale
(-4) t 
GR
GR
GS
[0.75843 0 0 0.75866 34.12951 155.71517] CT
0.149 GC
/Helvetica 13.194 F
GS
[1 0 0 1 0 0] CT
0 0 moveto 
1 -1 scale
(10) t 
GR
GR
GS
[0.75843 0 0 0.75866 47.02288 151.16318] CT
0.149 GC
/Helvetica 10.556 F
GS
[1 0 0 1 0 0] CT
0 0 moveto 
1 -1 scale
(-3) t 
GR
GR
GS
[0.75843 0 0 0.75866 34.12951 113.22997] CT
0.149 GC
/Helvetica 13.194 F
GS
[1 0 0 1 0 0] CT
0 0 moveto 
1 -1 scale
(10) t 
GR
GR
GS
[0.75843 0 0 0.75866 47.02288 108.67798] CT
0.149 GC
/Helvetica 10.556 F
GS
[1 0 0 1 0 0] CT
0 0 moveto 
1 -1 scale
(-2) t 
GR
GR
GS
[0.75843 0 0 0.75866 34.12951 70.74477] CT
0.149 GC
/Helvetica 13.194 F
GS
[1 0 0 1 0 0] CT
0 0 moveto 
1 -1 scale
(10) t 
GR
GR
GS
[0.75843 0 0 0.75866 47.02288 66.19278] CT
0.149 GC
/Helvetica 10.556 F
GS
[1 0 0 1 0 0] CT
0 0 moveto 
1 -1 scale
(-1) t 
GR
GR
GS
[0.75843 0 0 0.75866 37.16325 28.25957] CT
0.149 GC
/Helvetica 13.194 F
GS
[1 0 0 1 0 0] CT
0 0 moveto 
1 -1 scale
(10) t 
GR
GR
GS
[0.75843 0 0 0.75866 50.05662 23.70759] CT
0.149 GC
/Helvetica 10.556 F
GS
[1 0 0 1 0 0] CT
0 0 moveto 
1 -1 scale
(0) t 
GR
GR
GS
[0 -0.75866 0.75843 0 30.9167 150.78373] CT
0.149 GC
/Helvetica 14.514 F
GS
[1 0 0 1 0 0] CT
-15 -4 moveto 
1 -1 scale
(BER) t 
GR
GR
GS
[0.75843 0 0 0.75866 0 0.189] CT
0.192 0.122 0.529 RC
1 LJ
1.319 LW
N
78 43.891 M
116.583 47.859 L
155.167 53.051 L
193.75 59.999 L
232.333 69.345 L
270.917 81.31 L
309.5 98.126 L
348.083 119.312 L
386.667 147.033 L
425.25 183.609 L
463.833 231.54 L
502.417 298.77 L
S
GR
GS
[0.75843 0 0 0.75866 59.15782 33.48774] CT
0.192 0.122 0.529 RC
10.0 ML
1.319 LW
N
-2.799 -2.799 M
2.799 2.799 L
-2.799 2.799 M
2.799 -2.799 L
S
GR
GS
[0.75843 0 0 0.75866 88.42072 36.49788] CT
0.192 0.122 0.529 RC
10.0 ML
1.319 LW
N
-2.799 -2.799 M
2.799 2.799 L
-2.799 2.799 M
2.799 -2.799 L
S
GR
GS
[0.75843 0 0 0.75866 117.68362 40.43669] CT
0.192 0.122 0.529 RC
10.0 ML
1.319 LW
N
-2.799 -2.799 M
2.799 2.799 L
-2.799 2.799 M
2.799 -2.799 L
S
GR
GS
[0.75843 0 0 0.75866 146.94651 45.70779] CT
0.192 0.122 0.529 RC
10.0 ML
1.319 LW
N
-2.799 -2.799 M
2.799 2.799 L
-2.799 2.799 M
2.799 -2.799 L
S
GR
GS
[0.75843 0 0 0.75866 176.20942 52.79883] CT
0.192 0.122 0.529 RC
10.0 ML
1.319 LW
N
-2.799 -2.799 M
2.799 2.799 L
-2.799 2.799 M
2.799 -2.799 L
S
GR
GS
[0.75843 0 0 0.75866 205.4723 61.87619] CT
0.192 0.122 0.529 RC
10.0 ML
1.319 LW
N
-2.799 -2.799 M
2.799 2.799 L
-2.799 2.799 M
2.799 -2.799 L
S
GR
GS
[0.75843 0 0 0.75866 234.73521 74.63389] CT
0.192 0.122 0.529 RC
10.0 ML
1.319 LW
N
-2.799 -2.799 M
2.799 2.799 L
-2.799 2.799 M
2.799 -2.799 L
S
GR
GS
[0.75843 0 0 0.75866 263.99809 90.70637] CT
0.192 0.122 0.529 RC
10.0 ML
1.319 LW
N
-2.799 -2.799 M
2.799 2.799 L
-2.799 2.799 M
2.799 -2.799 L
S
GR
GS
[0.75843 0 0 0.75866 293.26101 111.73796] CT
0.192 0.122 0.529 RC
10.0 ML
1.319 LW
N
-2.799 -2.799 M
2.799 2.799 L
-2.799 2.799 M
2.799 -2.799 L
S
GR
GS
[0.75843 0 0 0.75866 322.5239 139.48668] CT
0.192 0.122 0.529 RC
10.0 ML
1.319 LW
N
-2.799 -2.799 M
2.799 2.799 L
-2.799 2.799 M
2.799 -2.799 L
S
GR
GS
[0.75843 0 0 0.75866 351.78678 175.85006] CT
0.192 0.122 0.529 RC
10.0 ML
1.319 LW
N
-2.799 -2.799 M
2.799 2.799 L
-2.799 2.799 M
2.799 -2.799 L
S
GR
GS
[0.75843 0 0 0.75866 381.04971 226.85508] CT
0.192 0.122 0.529 RC
10.0 ML
1.319 LW
N
-2.799 -2.799 M
2.799 2.799 L
-2.799 2.799 M
2.799 -2.799 L
S
GR
GS
[0.75843 0 0 0.75866 0 0.189] CT
0.212 0.322 0.796 RC
1 LJ
1.319 LW
N
78 80.85 M
116.583 92.96 L
155.167 108.429 L
193.75 126.93 L
232.333 149.029 L
270.917 178.261 L
309.5 209.936 L
348.083 263.685 L
386.667 298.77 L
S
GR
GS
[0.75843 0 0 0.75866 59.15782 61.52736] CT
0.212 0.322 0.796 RC
10.0 ML
1.319 LW
N
-2.799 -2.799 M
2.799 2.799 L
-2.799 2.799 M
2.799 -2.799 L
S
GR
GS
[0.75843 0 0 0.75866 88.42072 70.7146] CT
0.212 0.322 0.796 RC
10.0 ML
1.319 LW
N
-2.799 -2.799 M
2.799 2.799 L
-2.799 2.799 M
2.799 -2.799 L
S
GR
GS
[0.75843 0 0 0.75866 117.68362 82.45039] CT
0.212 0.322 0.796 RC
10.0 ML
1.319 LW
N
-2.799 -2.799 M
2.799 2.799 L
-2.799 2.799 M
2.799 -2.799 L
S
GR
GS
[0.75843 0 0 0.75866 146.94651 96.48623] CT
0.212 0.322 0.796 RC
10.0 ML
1.319 LW
N
-2.799 -2.799 M
2.799 2.799 L
-2.799 2.799 M
2.799 -2.799 L
S
GR
GS
[0.75843 0 0 0.75866 176.20942 113.25233] CT
0.212 0.322 0.796 RC
10.0 ML
1.319 LW
N
-2.799 -2.799 M
2.799 2.799 L
-2.799 2.799 M
2.799 -2.799 L
S
GR
GS
[0.75843 0 0 0.75866 205.4723 135.42954] CT
0.212 0.322 0.796 RC
10.0 ML
1.319 LW
N
-2.799 -2.799 M
2.799 2.799 L
-2.799 2.799 M
2.799 -2.799 L
S
GR
GS
[0.75843 0 0 0.75866 234.73521 159.45958] CT
0.212 0.322 0.796 RC
10.0 ML
1.319 LW
N
-2.799 -2.799 M
2.799 2.799 L
-2.799 2.799 M
2.799 -2.799 L
S
GR
GS
[0.75843 0 0 0.75866 263.99809 200.23731] CT
0.212 0.322 0.796 RC
10.0 ML
1.319 LW
N
-2.799 -2.799 M
2.799 2.799 L
-2.799 2.799 M
2.799 -2.799 L
S
GR
GS
[0.75843 0 0 0.75866 293.26101 226.85508] CT
0.212 0.322 0.796 RC
10.0 ML
1.319 LW
N
-2.799 -2.799 M
2.799 2.799 L
-2.799 2.799 M
2.799 -2.799 L
S
GR
GS
[0.75843 0 0 0.75866 0 0.189] CT
0.086 0.533 0.698 RC
1 LJ
1.319 LW
N
78 89.575 M
116.583 103.993 L
155.167 121.556 L
193.75 143.107 L
232.333 170.539 L
270.917 201.163 L
309.5 247.601 L
348.083 285.2 L
386.667 332.385 L
S
GR
GS
[0.75843 0 0 0.75866 59.15782 68.14615] CT
0.086 0.533 0.698 RC
10.0 ML
1.319 LW
N
-2.799 -2.799 M
2.799 2.799 L
-2.799 2.799 M
2.799 -2.799 L
S
GR
GS
[0.75843 0 0 0.75866 88.42072 79.08443] CT
0.086 0.533 0.698 RC
10.0 ML
1.319 LW
N
-2.799 -2.799 M
2.799 2.799 L
-2.799 2.799 M
2.799 -2.799 L
S
GR
GS
[0.75843 0 0 0.75866 117.68362 92.40894] CT
0.086 0.533 0.698 RC
10.0 ML
1.319 LW
N
-2.799 -2.799 M
2.799 2.799 L
-2.799 2.799 M
2.799 -2.799 L
S
GR
GS
[0.75843 0 0 0.75866 146.94651 108.75924] CT
0.086 0.533 0.698 RC
10.0 ML
1.319 LW
N
-2.799 -2.799 M
2.799 2.799 L
-2.799 2.799 M
2.799 -2.799 L
S
GR
GS
[0.75843 0 0 0.75866 176.20942 129.57121] CT
0.086 0.533 0.698 RC
10.0 ML
1.319 LW
N
-2.799 -2.799 M
2.799 2.799 L
-2.799 2.799 M
2.799 -2.799 L
S
GR
GS
[0.75843 0 0 0.75866 205.4723 152.80402] CT
0.086 0.533 0.698 RC
10.0 ML
1.319 LW
N
-2.799 -2.799 M
2.799 2.799 L
-2.799 2.799 M
2.799 -2.799 L
S
GR
GS
[0.75843 0 0 0.75866 234.73521 188.03524] CT
0.086 0.533 0.698 RC
10.0 ML
1.319 LW
N
-2.799 -2.799 M
2.799 2.799 L
-2.799 2.799 M
2.799 -2.799 L
S
GR
GS
[0.75843 0 0 0.75866 263.99809 216.5603] CT
0.086 0.533 0.698 RC
10.0 ML
1.319 LW
N
-2.799 -2.799 M
2.799 2.799 L
-2.799 2.799 M
2.799 -2.799 L
S
GR
GS
[0.75843 0 0 0.75866 293.26101 252.35759] CT
0.086 0.533 0.698 RC
10.0 ML
1.319 LW
N
-2.799 -2.799 M
2.799 2.799 L
-2.799 2.799 M
2.799 -2.799 L
S
GR
GS
[0.75843 0 0 0.75866 0 0.189] CT
0.224 0.635 0.42 RC
1 LJ
1.319 LW
N
78 94.234 M
116.583 109.581 L
155.167 128.63 L
193.75 151.819 L
232.333 180.463 L
270.917 215.114 L
309.5 260.988 L
348.083 298.77 L
S
GR
GS
[0.75843 0 0 0.75866 59.15782 71.68125] CT
0.224 0.635 0.42 RC
10.0 ML
1.319 LW
N
-2.799 -2.799 M
2.799 2.799 L
-2.799 2.799 M
2.799 -2.799 L
S
GR
GS
[0.75843 0 0 0.75866 88.42072 83.3243] CT
0.224 0.635 0.42 RC
10.0 ML
1.319 LW
N
-2.799 -2.799 M
2.799 2.799 L
-2.799 2.799 M
2.799 -2.799 L
S
GR
GS
[0.75843 0 0 0.75866 117.68362 97.77632] CT
0.224 0.635 0.42 RC
10.0 ML
1.319 LW
N
-2.799 -2.799 M
2.799 2.799 L
-2.799 2.799 M
2.799 -2.799 L
S
GR
GS
[0.75843 0 0 0.75866 146.94651 115.36893] CT
0.224 0.635 0.42 RC
10.0 ML
1.319 LW
N
-2.799 -2.799 M
2.799 2.799 L
-2.799 2.799 M
2.799 -2.799 L
S
GR
GS
[0.75843 0 0 0.75866 176.20942 137.10004] CT
0.224 0.635 0.42 RC
10.0 ML
1.319 LW
N
-2.799 -2.799 M
2.799 2.799 L
-2.799 2.799 M
2.799 -2.799 L
S
GR
GS
[0.75843 0 0 0.75866 205.4723 163.38851] CT
0.224 0.635 0.42 RC
10.0 ML
1.319 LW
N
-2.799 -2.799 M
2.799 2.799 L
-2.799 2.799 M
2.799 -2.799 L
S
GR
GS
[0.75843 0 0 0.75866 234.73521 198.19119] CT
0.224 0.635 0.42 RC
10.0 ML
1.319 LW
N
-2.799 -2.799 M
2.799 2.799 L
-2.799 2.799 M
2.799 -2.799 L
S
GR
GS
[0.75843 0 0 0.75866 263.99809 226.85508] CT
0.224 0.635 0.42 RC
10.0 ML
1.319 LW
N
-2.799 -2.799 M
2.799 2.799 L
-2.799 2.799 M
2.799 -2.799 L
S
GR
GS
[0.75843 0 0 0.75866 0 0.189] CT
0.733 0.584 0.153 RC
1 LJ
1.319 LW
N
78 96.124 M
116.583 111.76 L
155.167 131.107 L
193.75 155.477 L
232.333 184.627 L
270.917 220.962 L
309.5 266.72 L
348.083 315.577 L
386.667 332.385 L
S
GR
GS
[0.75843 0 0 0.75866 59.15782 73.11458] CT
0.733 0.584 0.153 RC
10.0 ML
1.319 LW
N
-2.799 -2.799 M
2.799 2.799 L
-2.799 2.799 M
2.799 -2.799 L
S
GR
GS
[0.75843 0 0 0.75866 88.42072 84.97769] CT
0.733 0.584 0.153 RC
10.0 ML
1.319 LW
N
-2.799 -2.799 M
2.799 2.799 L
-2.799 2.799 M
2.799 -2.799 L
S
GR
GS
[0.75843 0 0 0.75866 117.68362 99.65507] CT
0.733 0.584 0.153 RC
10.0 ML
1.319 LW
N
-2.799 -2.799 M
2.799 2.799 L
-2.799 2.799 M
2.799 -2.799 L
S
GR
GS
[0.75843 0 0 0.75866 146.94651 118.14399] CT
0.733 0.584 0.153 RC
10.0 ML
1.319 LW
N
-2.799 -2.799 M
2.799 2.799 L
-2.799 2.799 M
2.799 -2.799 L
S
GR
GS
[0.75843 0 0 0.75866 176.20942 140.25923] CT
0.733 0.584 0.153 RC
10.0 ML
1.319 LW
N
-2.799 -2.799 M
2.799 2.799 L
-2.799 2.799 M
2.799 -2.799 L
S
GR
GS
[0.75843 0 0 0.75866 205.4723 167.82498] CT
0.733 0.584 0.153 RC
10.0 ML
1.319 LW
N
-2.799 -2.799 M
2.799 2.799 L
-2.799 2.799 M
2.799 -2.799 L
S
GR
GS
[0.75843 0 0 0.75866 234.73521 202.53983] CT
0.733 0.584 0.153 RC
10.0 ML
1.319 LW
N
-2.799 -2.799 M
2.799 2.799 L
-2.799 2.799 M
2.799 -2.799 L
S
GR
GS
[0.75843 0 0 0.75866 263.99809 239.60635] CT
0.733 0.584 0.153 RC
10.0 ML
1.319 LW
N
-2.799 -2.799 M
2.799 2.799 L
-2.799 2.799 M
2.799 -2.799 L
S
GR
GS
[0.75843 0 0 0.75866 293.26101 252.35759] CT
0.733 0.584 0.153 RC
10.0 ML
1.319 LW
N
-2.799 -2.799 M
2.799 2.799 L
-2.799 2.799 M
2.799 -2.799 L
S
GR
GS
[0.75843 0 0 0.75866 0 0.189] CT
0.78 0.788 0.063 RC
1 LJ
1.319 LW
N
78 99.586 M
116.583 116.073 L
155.167 136.802 L
193.75 161.538 L
232.333 192.743 L
270.917 232.704 L
309.5 274.241 L
348.083 305.746 L
S
GR
GS
[0.75843 0 0 0.75866 59.15782 75.7416] CT
0.78 0.788 0.063 RC
10.0 ML
1.319 LW
N
-2.799 -2.799 M
2.799 2.799 L
-2.799 2.799 M
2.799 -2.799 L
S
GR
GS
[0.75843 0 0 0.75866 88.42072 88.24921] CT
0.78 0.788 0.063 RC
10.0 ML
1.319 LW
N
-2.799 -2.799 M
2.799 2.799 L
-2.799 2.799 M
2.799 -2.799 L
S
GR
GS
[0.75843 0 0 0.75866 117.68362 103.97603] CT
0.78 0.788 0.063 RC
10.0 ML
1.319 LW
N
-2.799 -2.799 M
2.799 2.799 L
-2.799 2.799 M
2.799 -2.799 L
S
GR
GS
[0.75843 0 0 0.75866 146.94651 122.74228] CT
0.78 0.788 0.063 RC
10.0 ML
1.319 LW
N
-2.799 -2.799 M
2.799 2.799 L
-2.799 2.799 M
2.799 -2.799 L
S
GR
GS
[0.75843 0 0 0.75866 176.20942 146.41584] CT
0.78 0.788 0.063 RC
10.0 ML
1.319 LW
N
-2.799 -2.799 M
2.799 2.799 L
-2.799 2.799 M
2.799 -2.799 L
S
GR
GS
[0.75843 0 0 0.75866 205.4723 176.73325] CT
0.78 0.788 0.063 RC
10.0 ML
1.319 LW
N
-2.799 -2.799 M
2.799 2.799 L
-2.799 2.799 M
2.799 -2.799 L
S
GR
GS
[0.75843 0 0 0.75866 234.73521 208.24549] CT
0.78 0.788 0.063 RC
10.0 ML
1.319 LW
N
-2.799 -2.799 M
2.799 2.799 L
-2.799 2.799 M
2.799 -2.799 L
S
GR
GS
[0.75843 0 0 0.75866 263.99809 232.14735] CT
0.78 0.788 0.063 RC
10.0 ML
1.319 LW
N
-2.799 -2.799 M
2.799 2.799 L
-2.799 2.799 M
2.799 -2.799 L
S
GR
GS
[0.75843 0 0 0.75866 0 0.189] CT
1 GC
N
208 346 M
208 218 L
102 218 L
102 346 L
cp
f
GR
GS
[0.75843 0 0 0.75866 112.83002 172.81338] CT
/Helvetica 11.875 F
GS
[1 0 0 1 0 0] CT
0 4.5 moveto 
1 -1 scale
(empty) t 
GR
GR
GS
[0.75843 0 0 0.75866 112.83002 184.61878] CT
/Helvetica 11.875 F
GS
[1 0 0 1 0 0] CT
0 4.5 moveto 
1 -1 scale
(tones) t 
GR
GR
GS
[0.75843 0 0 0.75866 112.83002 196.42419] CT
/Helvetica 11.875 F
GS
[1 0 0 1 0 0] CT
0 4.5 moveto 
1 -1 scale
(0) t 
GR
GR
GS
[0.75843 0 0 0.75866 0 0.189] CT
0.192 0.122 0.529 RC
1 LJ
1.319 LW
N
106.016 258.659 M
145.755 258.659 L
S
GR
GS
[0.75843 0 0 0.75866 95.47584 196.42419] CT
0.192 0.122 0.529 RC
10.0 ML
1.319 LW
N
-2.799 -2.799 M
2.799 2.799 L
-2.799 2.799 M
2.799 -2.799 L
S
GR
GS
[0.75843 0 0 0.75866 112.83002 208.2296] CT
/Helvetica 11.875 F
GS
[1 0 0 1 0 0] CT
0 4.5 moveto 
1 -1 scale
(1) t 
GR
GR
GS
[0.75843 0 0 0.75866 0 0.189] CT
0.212 0.322 0.796 RC
1 LJ
1.319 LW
N
106.016 274.22 M
145.755 274.22 L
S
GR
GS
[0.75843 0 0 0.75866 95.47584 208.2296] CT
0.212 0.322 0.796 RC
10.0 ML
1.319 LW
N
-2.799 -2.799 M
2.799 2.799 L
-2.799 2.799 M
2.799 -2.799 L
S
GR
GS
[0.75843 0 0 0.75866 112.83002 220.03502] CT
/Helvetica 11.875 F
GS
[1 0 0 1 0 0] CT
0 4.5 moveto 
1 -1 scale
(3) t 
GR
GR
GS
[0.75843 0 0 0.75866 0 0.189] CT
0.086 0.533 0.698 RC
1 LJ
1.319 LW
N
106.016 289.78 M
145.755 289.78 L
S
GR
GS
[0.75843 0 0 0.75866 95.47584 220.03502] CT
0.086 0.533 0.698 RC
10.0 ML
1.319 LW
N
-2.799 -2.799 M
2.799 2.799 L
-2.799 2.799 M
2.799 -2.799 L
S
GR
GS
[0.75843 0 0 0.75866 112.83002 231.84044] CT
/Helvetica 11.875 F
GS
[1 0 0 1 0 0] CT
0 4.5 moveto 
1 -1 scale
(5) t 
GR
GR
GS
[0.75843 0 0 0.75866 0 0.189] CT
0.224 0.635 0.42 RC
1 LJ
1.319 LW
N
106.016 305.341 M
145.755 305.341 L
S
GR
GS
[0.75843 0 0 0.75866 95.47584 231.84044] CT
0.224 0.635 0.42 RC
10.0 ML
1.319 LW
N
-2.799 -2.799 M
2.799 2.799 L
-2.799 2.799 M
2.799 -2.799 L
S
GR
GS
[0.75843 0 0 0.75866 112.83002 243.64583] CT
/Helvetica 11.875 F
GS
[1 0 0 1 0 0] CT
0 4.5 moveto 
1 -1 scale
(7) t 
GR
GR
GS
[0.75843 0 0 0.75866 0 0.189] CT
0.733 0.584 0.153 RC
1 LJ
1.319 LW
N
106.016 320.902 M
145.755 320.902 L
S
GR
GS
[0.75843 0 0 0.75866 95.47584 243.64583] CT
0.733 0.584 0.153 RC
10.0 ML
1.319 LW
N
-2.799 -2.799 M
2.799 2.799 L
-2.799 2.799 M
2.799 -2.799 L
S
GR
GS
[0.75843 0 0 0.75866 112.83002 255.45124] CT
/Helvetica 11.875 F
GS
[1 0 0 1 0 0] CT
0 4.5 moveto 
1 -1 scale
(no OFDM) t 
GR
GR
GS
[0.75843 0 0 0.75866 0 0.189] CT
0.78 0.788 0.063 RC
1 LJ
1.319 LW
N
106.016 336.463 M
145.755 336.463 L
S
GR
GS
[0.75843 0 0 0.75866 95.47584 255.45124] CT
0.78 0.788 0.063 RC
10.0 ML
1.319 LW
N
-2.799 -2.799 M
2.799 2.799 L
-2.799 2.799 M
2.799 -2.799 L
S
GR
GS
[0.75843 0 0 0.75866 0 0.189] CT
0.149 GC
10.0 ML
0.66 LW
N
102 346 M
102 218 L
208 218 L
208 346 L
cp
S
GR
%%Trailer
%%Pages: 1
%%EOF
